[
{
  "model": "C_and_C.category",
  "pk": 1,
  "fields": {
    "name": "Cakes",
    "description": "All sweet cakes here."
  }
},
{
  "model": "C_and_C.category",
  "pk": 2,
  "fields": {
    "name": "Coffee",
    "description": "just all great coffees in the canteen"
  }
},
{
  "model": "C_and_C.category",
  "pk": 3,
  "fields": {
    "name": "Delicacies",
    "description": "sweetie delicacies"
  }
},
{
  "model": "C_and_C.category",
  "pk": 4,
  "fields": {
    "name": "Drinks",
    "description": "just drinks"
  }
}
]
